{
	"partitions" : [
		{
			"name" : "Top",
			"pins" : [
				{
					"name" : "led3",
					"strict" : false
				},
				{
					"name" : "led2",
					"strict" : false
				},
				{
					"name" : "led1",
					"strict" : false
				},
				{
					"name" : "led0",
					"strict" : false
				},
				{
					"name" : "sw1",
					"strict" : false
				},
				{
					"name" : "sw0",
					"strict" : false
				}
			]
		}
	]
}